{
  "data":
    {
      "title": "misskey",
      "category": "social network",
      "type": "microblogging",
      "logoClr": "9fd608",
      "created": "2014",
      "official": "https://misskey-hub.net/en",
      "license": "AGPL-3.0",
      "repo": "https://github.com/misskey-dev/misskey",
      "language": "TypeScript",
      "protocols":
        [
          {"title": "ActivityPub", "url": "https://activitypub.rocks"}
        ],
      "wiki": "https://misskey-hub.net/en/docs/misskey.html",
      "servers":
        [
          {"num": "1", "url": "https://misskey-hub.net/en/instances.html"},
          {"num": "2", "url": "https://join.misskey.page/en/wiki/instances"},
          {"num": "3", "url": "https://the-federation.info/misskey"},
          {"num": "4", "url": "https://fedidb.org/network/?s=misskey"},
          {"num": "5", "url": "https://misskey.fediverse.observer/list"}
        ],
      "mobile": "https://misskey-hub.net/en/docs/faq.html",
      "devTutorial": "https://misskey-hub.net/en/docs/install.html",
      "forks":
        [
          {"id": "0", "url": "https://codeberg.org/thatonecalculator/calckey", "descr": "Calckey - fork with requested community features"},
          {"id": "1", "url": "https://akkoma.dev/FoundKeyGang/FoundKey", "descr": "Foundkey - fork that removes bloat from Misskey"},
          {"id": "2", "url": "https://github.com/mei23/misskey", "descr": "Meiskey - actively developed fork v11"}
        ],
      "mascot": [{"item": "藍 (Ai)", "imgNum": "1"}],
      "dwellers": "Miskist",
      "communities": "",
      "descr": "Apart from the mainstream microblogging experience, this network provides many additional features like a calendar, emoji reactions, rich chatting, antennas, animated text posts, and more. The web client can be customized by choosing from various available widgets. Original interface language is Japanese, but translations for many other languages such as English, German, Korean and more are available.",
      "connections": ["Friendica", "Hubzilla", "microblog.pub", "Mastodon", "PeerTube", "Pixelfed", "Pleroma", "Plume", "WriteFreely"],
      "screenshots":
        [
          {"descr": "Misskey interface", "img": "misskey-1.jpg"},
          {"descr": "Dark theme", "img": "misskey-2.jpg"}
        ],
      "features":
        [
          "polls",
          "emoji reactions",
          "lists",
          "calendar",
          "trends",
          "recommended users",
          "tips for newcomers",
          "server information",
          "animated markdown",
          "rich chatting"
        ],
      "donate": "https://www.patreon.com/syuilo",
      "tracker": "https://github.com/syuilo/misskey/issues",
      "bounty": "",
      "translating": "https://crowdin.com/project/misskey",
      "reading": "",
      "notable": ""
    }
}
